{
	"info": {
		"_postman_id": "dd3f2c18-08e5-4362-b313-e86b0f446389",
		"name": "Covid service",
		"description": "# Introduction\nWhat does your API do?\n\n# Overview\nThings that the developers should know about\n\n# Authentication\nWhat is the preferred way of using the API?\n\n# Error Codes\nWhat errors and status codes can a user expect?\n\n# Rate limit\nIs there a limit to the number of requests a user can send?",
		"schema": "https://schema.getpostman.com/json/collection/v2.1.0/collection.json",
		"_exporter_id": "6878537"
	},
	"item": [
		{
			"name": "http://localhost:8000/api/v1/patients",
			"protocolProfileBehavior": {
				"disableBodyPruning": true
			},
			"request": {
				"method": "GET",
				"header": [],
				"body": {
					"mode": "raw",
					"raw": ""
				},
				"url": {
					"raw": "http://localhost:8000/api/v1/patients",
					"protocol": "http",
					"host": [
						"localhost"
					],
					"port": "8000",
					"path": [
						"api",
						"v1",
						"patients"
					]
				},
				"description": "Получение списка пациентов"
			},
			"response": [
				{
					"name": "Default",
					"originalRequest": {
						"method": "GET",
						"header": [],
						"body": {
							"mode": "raw",
							"raw": ""
						},
						"url": {
							"raw": "http://localhost:8000/api/v1/patients",
							"protocol": "http",
							"host": [
								"localhost"
							],
							"port": "8000",
							"path": [
								"api",
								"v1",
								"patients"
							]
						}
					},
					"_postman_previewlanguage": null,
					"header": null,
					"cookie": [],
					"body": ""
				}
			]
		},
		{
			"name": "http://localhost:8000/api/v1/patients/create",
			"request": {
				"method": "POST",
				"header": [],
				"body": {
					"mode": "raw",
					"raw": ""
				},
				"url": {
					"raw": "http://localhost:8000/api/v1/patients/create",
					"protocol": "http",
					"host": [
						"localhost"
					],
					"port": "8000",
					"path": [
						"api",
						"v1",
						"patients",
						"create"
					]
				},
				"description": "Создание пациента"
			},
			"response": [
				{
					"name": "Default",
					"originalRequest": {
						"method": "POST",
						"header": [],
						"body": {
							"mode": "raw",
							"raw": ""
						},
						"url": {
							"raw": "http://localhost:8000/api/v1/patients/create",
							"protocol": "http",
							"host": [
								"localhost"
							],
							"port": "8000",
							"path": [
								"api",
								"v1",
								"patients",
								"create"
							]
						}
					},
					"_postman_previewlanguage": null,
					"header": null,
					"cookie": [],
					"body": ""
				}
			]
		}
	]
}